Alpha and beta diversity across animal host species
…
div <- sample_data(ps) %>% 
    as_tibble %>%
    gather("Index.Rank", "Diversity", 
        starts_with("InvSimp"), starts_with("Richness"), 
        starts_with("Shannon")) %>%
    separate("Index.Rank", c("Index", "Rank"), sep = "\\.") %>%
    mutate(
        Rank = factor(Rank, levels = c("Family", "Genus", "ASV")),
        Index = factor(Index, levels = c("InvSimp", "Shannon", "Richness"))
        )
div %>%
    select(Sample, Host_species, Index:Diversity)

## # A tibble: 579 x 5
##    Sample     Host_species Index   Rank   Diversity
##    <chr>      <chr>        <fct>   <fct>      <dbl>
##  1 CS1_EQ1    Equine       InvSimp Family     12.2 
##  2 CS10_OV3   Ovine        InvSimp Family      9.15
##  3 CS100_CN59 Canine       InvSimp Family      5.33
##  4 CS101_CN60 Canine       InvSimp Family      2.14
##  5 CS102_FL7  Feline       InvSimp Family      4.03
##  6 CS103_CN61 Canine       InvSimp Family      8.88
##  7 CS104_EQ28 Equine       InvSimp Family      9.48
##  8 CS105_EQ29 Equine       InvSimp Family      7.94
##  9 CS106_CN62 Canine       InvSimp Family      7.52
## 10 CS107_EQ30 Equine       InvSimp Family     12.1 
## #  with 569 more rows
…
