Compositional PCA and differential-abundance analysis
…
It is difficult to tell which points correspond to samples in which the taxon has a read count of 0, since the mean CLR value for a taxon with a read count of 0 depends on the read depth and sample composition. Lets see what the largest CLR value is for such a taxon.

tb <- clr.means %>% 
    select(Sample, Taxon, CD, CLR) %>%
    left_join(otu_table(ps.canine) %>% as_tibble(tidy = TRUE), 
        by = c("Sample", "Taxon"))

## Warning: Column `Taxon` joining factor and character vector, coercing into
## character vector

tb %>%
    filter(Abundance == 0) %>%
    arrange(-CLR)

## # A tibble: 623 x 5
##    Sample Taxon  CD           CLR Abundance
##    <chr>  <chr>  <fct>      <dbl>     <int>
##  1 CS148  ASV37  Negative -0.0770         0
##  2 CS114  ASV37  Negative -0.0856         0
##  3 CS126  ASV10  Negative -0.148          0
##  4 CS101  ASV62  Negative -0.168          0
##  5 CS101  ASV10  Negative -0.184          0
##  6 CS177  ASV10  Negative -0.199          0
##  7 CS177  ASV82  Negative -0.201          0
##  8 CS126  ASV82  Negative -0.205          0
##  9 CS194  ASV20  Negative -0.209          0
## 10 CS126  ASV233 Negative -0.211          0
## #  with 613 more rows
…
