[Clostridium] hiranonis ASVs
…
ASV4 is the most prevalent by far, ASV62 also has substantial prevalence in Canines, and all other ASVs appear only 1-3 times.

To try to get a better view of whats going on, lets lump together all the rare ASVS (the ones besides 4 and 62).

hira0 <- hira %>%
    mutate(Taxon = ifelse(Taxon %in% c("ASV4", "ASV62"), Taxon, "Other")) %>%
    group_by_at(vars(Sample, Taxon, sample_variables(ps))) %>%
    summarize_at(vars(Abundance, Proportion), sum) %>%
    ungroup
hira0 %>%
    select(Sample, Taxon, Abundance, Proportion)

## # A tibble: 579 x 4
##    Sample     Taxon Abundance Proportion
##    <chr>      <chr>     <int>      <dbl>
##  1 CS1_EQ1    ASV4          0   0       
##  2 CS1_EQ1    ASV62         0   0       
##  3 CS1_EQ1    Other         0   0       
##  4 CS10_OV3   ASV4          0   0       
##  5 CS10_OV3   ASV62         0   0       
##  6 CS10_OV3   Other         0   0       
##  7 CS100_CN59 ASV4       1132   0.0545  
##  8 CS100_CN59 ASV62         0   0       
##  9 CS100_CN59 Other         0   0       
## 10 CS101_CN60 ASV4          8   0.000364
## #  with 569 more rows
…
